{
    "en": {
        "settings.title": "Widget title",
        "settings.communication.messagebus": "Widget group",
        "settings.communication.subscriptions": "Subscriptions",
        "settings.database": "Database",
        "settings.database.add": "Add database to topics",
        "settings.table.database.topic": "Database/Topic",
        "settings.table.database.fields": "Fields",
        "settings.subscription.add.field": "Add field",
        "settings.google.maps.api.key": "Google Maps API key",
        "requestAPIKey": "Request API key",
        "settings.edit.label": "Edit",
        "settings.remove.label": "Remove"
    },
    "de": {
        "settings.title": "Widget-Titel",
        "settings.communication.messagebus": "Widget-Gruppe",
        "settings.communication.subscriptions": "Abos",
        "settings.database": "Datenbank",
        "settings.database.add": "Datenbank zu Themen hinzufügen",
        "settings.table.database.topic": "Datenbank/Thema",
        "settings.table.database.fields": "Felder",
        "settings.subscription.add.field": "Feld hinzufügen",
        "settings.google.maps.api.key": "Google Maps-API-Schlüssel",
        "requestAPIKey": "API-Schlüssel anfordern",
        "settings.edit.label": "Bearbeiten",
        "settings.remove.label": "Entfernen"
    },
    "bg": {
        "requestAPIKey": "Заявка за API ключ",
        "settings.communication.messagebus": "Група елементи",
        "settings.communication.subscriptions": "Абонаменти",
        "settings.database": "База данни",
        "settings.database.add": "Добавяне база данни ",
        "settings.edit.label": "Редакция",
        "settings.google.maps.api.key": "Google Maps API ключ",
        "settings.remove.label": "Премахване",
        "settings.table.database.fields": "Полета",
        "settings.table.database.topic": "База данни/Тема",
        "settings.title": "Заглавие на елемента",
        "settings.subscription.add.field": "Добавяне на поле"
    },
    "es": {
        "requestAPIKey": "Solicite la clave de API",
        "settings.communication.messagebus": "Grupo de widgets",
        "settings.communication.subscriptions": "Suscripciones",
        "settings.database": "Base de datos",
        "settings.database.add": "Agregar base de datos a temas",
        "settings.edit.label": "Editar",
        "settings.google.maps.api.key": "Clave de API de Google Maps",
        "settings.remove.label": "Eliminar",
        "settings.table.database.fields": "Campos",
        "settings.table.database.topic": "Base de datos/tema",
        "settings.title": "Título de widget",
        "settings.subscription.add.field": "Agregar campo"
    },
    "fr": {
        "requestAPIKey": "Demande clé API",
        "settings.communication.messagebus": "Groupe widget",
        "settings.communication.subscriptions": "Abonnements",
        "settings.database": "Base de données",
        "settings.database.add": "Ajouter une base de données aux sujets",
        "settings.edit.label": "Modifier",
        "settings.google.maps.api.key": "Clé API Google Maps",
        "settings.remove.label": "Supprimer",
        "settings.table.database.fields": "Champs",
        "settings.table.database.topic": "Base de données/sujet",
        "settings.title": "Titre du widget",
        "settings.subscription.add.field": "Ajouter champ"
    },
    "pl": {
        "requestAPIKey": "Żądanie klucza API",
        "settings.communication.messagebus": "Grupa widżetów",
        "settings.communication.subscriptions": "Subskrypcje",
        "settings.database": "Baza danych",
        "settings.database.add": "Dodaj bazę danych do tematów",
        "settings.edit.label": "Edytuj",
        "settings.google.maps.api.key": "Klucz API Map Google",
        "settings.remove.label": "Usuń",
        "settings.table.database.fields": "Pola",
        "settings.table.database.topic": "Baza danych/Temat",
        "settings.title": "Tytuł widżetu",
        "settings.subscription.add.field": "Dodaj pole"
    }
}